Map a function to a grid of settings to create a plan. — map_plan • drake
…
colnames(args) <- c("x1", "x2")
head(args)
#>    x1   x2
#> 1 cyl disp
#> 2 cyl   hp
#> 3 cyl drat
#> 4 cyl   wt
#> 5 cyl qsec
#> 6 cyl   vs
# For each row of `args`, we want to fit a model using the
# covariates in the row.
# We can formulate this task in terms of a `drake` plan.
plan <- map_plan(args, "my_model_fit")
plan
#> # A tibble: 45 x 2
#>    target                command                                    
#>    <chr>                 <chr>                                      
#>  1 my_model_fit_d8f8c343 "my_model_fit(x1 = \"cyl\", x2 = \"disp\")"
#>  2 my_model_fit_41b5eb56 "my_model_fit(x1 = \"cyl\", x2 = \"hp\")"  
#>  3 my_model_fit_11bff127 "my_model_fit(x1 = \"cyl\", x2 = \"drat\")"
#>  4 my_model_fit_0ab13a43 "my_model_fit(x1 = \"cyl\", x2 = \"wt\")"  
#>  5 my_model_fit_e86c89cb "my_model_fit(x1 = \"cyl\", x2 = \"qsec\")"
#>  6 my_model_fit_402688d8 "my_model_fit(x1 = \"cyl\", x2 = \"vs\")"  
#>  7 my_model_fit_622ee39d "my_model_fit(x1 = \"cyl\", x2 = \"am\")"  
#>  8 my_model_fit_0f1efb11 "my_model_fit(x1 = \"cyl\", x2 = \"gear\")"
#>  9 my_model_fit_2951b593 "my_model_fit(x1 = \"cyl\", x2 = \"carb\")"
#> 10 my_model_fit_eb3f790d "my_model_fit(x1 = \"disp\", x2 = \"hp\")" 
#> # ... with 35 more rows
# The default target names are ugly, so we can supply
# our own names. You can either set an "id" column in `args`
# or set the `id` argument of `map_plan()`.
args$id <- paste0("fit_", args$x1, "_", args$x2)
plan <- map_plan(args, "my_model_fit")
plan
#> # A tibble: 45 x 2
#>    target       command                                    
#>    <chr>        <chr>                                      
#>  1 fit_cyl_disp "my_model_fit(x1 = \"cyl\", x2 = \"disp\")"
#>  2 fit_cyl_hp   "my_model_fit(x1 = \"cyl\", x2 = \"hp\")"  
#>  3 fit_cyl_drat "my_model_fit(x1 = \"cyl\", x2 = \"drat\")"
#>  4 fit_cyl_wt   "my_model_fit(x1 = \"cyl\", x2 = \"wt\")"  
#>  5 fit_cyl_qsec "my_model_fit(x1 = \"cyl\", x2 = \"qsec\")"
#>  6 fit_cyl_vs   "my_model_fit(x1 = \"cyl\", x2 = \"vs\")"  
#>  7 fit_cyl_am   "my_model_fit(x1 = \"cyl\", x2 = \"am\")"  
#>  8 fit_cyl_gear "my_model_fit(x1 = \"cyl\", x2 = \"gear\")"
#>  9 fit_cyl_carb "my_model_fit(x1 = \"cyl\", x2 = \"carb\")"
#> 10 fit_disp_hp  "my_model_fit(x1 = \"disp\", x2 = \"hp\")" 
#> # ... with 35 more rows
…
